"Rang","Équipe","Origine","Points","Stand","Joués","Victoire","Défaite","Égalités","Forfaits"
"1er","EMBA","SWITZERLAND",600,,6,4,2,0,0
"2e","IRIS","SWITZERLAND",568,,6,5,1,0,0
"3e","RTFM Team Rocket","SWITZERLAND",448,,6,4,2,0,0
"4e","Roboterclub Aachen e.V.","GERMANY",425,,5,3,2,0,0
"5e","TeamAuto","SWITZERLAND",412,,6,2,4,0,0
"6e","RCR","SWITZERLAND",354,,6,3,3,0,0
"7e","HomeSickRobot","SWITZERLAND",339,,6,4,2,0,0
"8e","BH Team","FRANCE",300,,6,4,2,0,0
"9e","CVRA","SWITZERLAND",270,,6,2,4,0,0
"10e","RCO","SWITZERLAND",224,,6,2,4,0,0
"11e","CRH","SWITZERLAND",170,,6,1,3,0,2
"12e","FP Bobst","SWITZERLAND",57,,5,0,3,0,2
