"Rang","Équipe","Origine","Points","Stand","Joués","Victoire","Défaite","Égalités","Forfaits"
"1er","Bot Marley Team - UCLouvain","BELGIUM",612,,3,3,0,0,0
"2e","Team Botman - UCLouvain","BELGIUM",540,,3,1,2,0,0
"3e","RCR","SWITZERLAND",467,,3,3,0,0,0
"4e","TeamAuto","SWITZERLAND",466,,3,2,1,0,0
"5e","Team Robeenet - UCLouvain","BELGIUM",421,,3,0,3,0,0
"6e","Happy Social Robot","SWITZERLAND",391,,3,3,0,0,0
"7e","IRIS","SWITZERLAND",342,,3,2,1,0,0
"8e","CVRA","SWITZERLAND",322,,3,3,0,0,0
"9e","Beckhoff - CPNV","SWITZERLAND",313,,3,3,0,0,0
"10e","FP Bobst","SWITZERLAND",203,,3,0,3,0,0
"11e","Alpobot","FRANCE",172,,3,1,2,0,0
"12e","TURAG","GERMANY",160,,3,1,2,0,0
"13e","EMBA","SWITZERLAND",150,,3,2,0,0,1
"14e","RTFM","SWITZERLAND",141,,3,1,1,0,1
"15e","CRH","SWITZERLAND",125,,2,1,1,0,0
"16e","GodziBot Team - UCLouvain","BELGIUM",121,,3,2,1,0,0
"17e","C.R.A.P.","FRANCE",120,,3,1,2,0,0
"18e","Sudriabotik","FRANCE",96,,3,0,2,0,1
"19e","Roboterclub Ostschweiz RCO","SWITZERLAND",91,,3,1,2,0,0
"20e","E-Robot","SWITZERLAND",88,,3,0,3,0,0
"21e","BoTortank Team - UCLouvain","BELGIUM",55,,1,0,1,0,0
