"Rang","Équipe","Stand","Origine","Cumul pts.","Joués","Vict.","Déf.","Égal."
"1er","Robotech Legends",101," CASTELNAU LE LEZ",366,2,2,0,0
"2nd","IUT Cachan CRAC",131," CACHAN",336,2,2,0,0
"3ème","Trognon",94," Saint-Cyr l’Ecole",327,2,2,0,0
"4ème","RCVA",40," Ville d’Avray",322,2,2,0,0
"5ème","Brick&Steel",55," ISSY LES MOULINEAUX",318,2,2,0,0
"6ème","ENSIM’Elec",12," Le Mans",313,2,2,0,0
"7ème","OpenSaBot – OneNight",26," Toulouse",308,2,2,0,0
"8ème","Coffee Machine",57," Paris",304,2,2,0,0
"9ème","ESEO Angers",133," Angers",274,2,2,0,0
"10ème","ENAC Robotique",129," Toulouse",269,2,2,0,0
"11ème","INTech",81," Evry",268,2,1,1,0
"12ème","INSTA UPMC",75," Paris",267,2,2,0,0
"13ème","Cocobot",84," Pessac",230,2,2,0,0
"14ème","CUBOT",114," Sochaux",221,2,2,0,0
"15ème","Cybernétique en Nord_2",16," RONCQ",220,2,2,0,0
"15ème","F.A.T. ENAC",128," Toulouse",220,2,2,0,0
"17ème","ARFIT",42," Tours",213,2,2,0,0
"18ème","YETIBOT",120," BREST",204,2,1,1,0
"19ème","Cybernétique en Nord",15," RONCQ",201,2,2,0,0
"20ème","Rob’Otter",63," BORDEAUX",195,2,1,1,0
"21ème","MiAM",147," Marly le roi",184,2,1,1,0
"22ème","Les Karibous",90," AMIENS",182,2,1,1,0
"23ème","Sudriabotik",73," Ivry-sur-Seine",180,2,1,1,0
"24ème","EsialRobotik",82," Tomblaine",175,2,2,0,0
"25ème","Unitec-UTBM",110," Belfort",170,2,1,1,0
"25ème","Supélec Droid Kreator",1," Gif sur Yvette",170,2,2,0,0
"27ème","Rob&leon",85," Toulouse",159,2,1,1,0
"28ème","LPO les Lombards",111," Troyes",156,2,0,2,0
"29ème","Club Crysteo – ISEN LILLE",97," LILLE",150,2,0,2,0
"30ème","Supaero Robotik Club",141," TOULOUSE",146,2,1,1,0
"31ème","Minotaure",146," Paris",144,2,1,1,0
"32ème","AIR-Robotique",69," Vireux-Walledand",140,2,2,0,0
"33ème","Goldorak",17," Nanterre",138,2,2,0,0
"34ème","I-Grebot",117," SAINT MARTIN D’HERES",135,2,1,1,0
"35ème","7Robot",132," Toulouse",130,2,1,1,0
"36ème","WeR’Droïd",96," ORSAY",125,2,1,1,0
"36ème","A.I.G.R.I.S.",115," Ramonville",125,2,1,1,0
"38ème","Familyteam",149," Toussus le Noble",124,2,2,0,0
"39ème","R2 ROBOTICS",140," TOULOUSE",123,2,1,1,0
"40ème","Acropole (Sikula Robotik)",135," TALMONT ST HILAIRE",117,2,0,2,0
"41ème","Télécom Robotics",14," PARIS",116,2,2,0,0
"42ème","OMYBOT",95," CHEVILLY LARUE",115,2,1,0,1
"43ème","ThalBot",56," Les Mesnuls",110,2,1,1,0
"43ème","X-Robot",11," Palaiseau",110,2,1,0,0
"43ème","ENSIL Robotik",37," Limoges",110,2,1,1,0
"43ème","Xenomorphales",86," Le Pian-Médoc",110,2,1,1,0
"43ème","cools boys",143," Toulouse",110,2,0,2,0
"48ème","MécatroBot",136," Verrières-le-buisson",108,2,1,1,0
"49ème","SUSSUS INVADERS",74," paris",107,2,1,1,0
"50ème","Focus Robotique",46," CASTANET TOLOSAN",105,2,1,1,0
"51ème","TDS-Team",106," St Denis des Coudrais",101,2,1,1,0
"52ème","Club Robot INSA Rennes",121," Rennes",98,2,1,1,0
"53ème","IUT GEII Toulon",234," La Garde CEDEX",96,2,0,2,0
"54ème","RIR-4A",68," ROANNE",95,2,1,1,0
"54ème","futuRIR",67," ROANNE",95,2,0,2,0
"56ème","Astro Monkeys",134," Labège",93,2,1,1,0
"57ème","MécatroMines de Paris",148," Paris",90,2,0,2,0
"58ème","Robotech UPMC Senior",105," paris",85,2,1,1,0
"58ème","Valrobotik",93," Famars",85,2,2,0,0
"60ème","PM-ROBOTIX",53," VILLERUPT",80,2,1,1,0
"61ème","Les Ecapiculteurs by ECAM Lyon",70," Lyon",75,2,0,2,0
"61ème","Evolutek",72," kremlin-bicetre",75,2,1,1,0
"63ème","INTech – Senpai",80," Toulouse",72,2,2,0,0
"64ème","Projet & Tech’",64," Saint-Etienne",70,2,1,1,0
"65ème","COGIP",33," SAINT HILAIRE DES LANDES",65,2,0,2,0
"66ème","Ecole Centrale LYON – ERACL1",123," Ecully Cedex",61,2,1,1,0
"67ème","RCO",23," Le Mans",60,2,1,0,1
"68ème","UTCoupe",109," COMPIEGNE",55,1,1,0,0
"68ème","HoloBots",127," Ramonvile St Agne",55,2,0,1,1
"68ème","C-BOT",48," LOUBLANDE",55,2,0,2,0
"68ème","Crobot’ic",144," Villejuif",55,1,0,1,0
"72ème","ENSTA Robotique",139," Palaiseau",50,2,1,1,0
"72ème","INSSET RobotX",92," Saint-Quentin",50,2,0,1,1
"72ème","ARI",78," Saint-Etienne-du-Rouvray",50,2,0,2,0
"75ème","ENIgma Robotics",60," Metz",46,2,1,1,0
"76ème","HeiRobot",77," Châteauroux",45,2,0,2,0
"77ème","EpicNes",79," Paris",42,2,0,2,0
"78ème","CRIG-1",29," Villetaneuse",40,2,1,0,1
"78ème","Robotium",118," Cergy",40,2,0,2,0
"78ème","DaVinciBot",76," Courbevoie",40,2,0,0,2
"78ème","EucuBot",107," Grenoble",40,2,0,1,1
"78ème","CRIG-3",31," Villetaneuse",40,2,0,2,0
"78ème","Galiléo",19," Villeurbanne",40,2,0,1,1
"78ème","Club de Robotique de l’INSA Strasbourg",122," Strasbourg",40,2,0,1,1
"85ème","Area Bot",13," PARIS",35,2,0,2,0
"86ème","Eirbot",88," Talence",31,2,1,0,0
"87ème","Kinetic Concept",130," Saint Leu la forêt",30,1,0,1,0
"87ème","Robotik UTT",108," Troyes",30,1,1,0,0
"87ème","CRIG-2",30," Villetaneuse",30,2,1,0,0
"90ème","Robotech Montpellier",100," Montpellier",27,2,0,1,0
"91ème","Ecole Centrale LYON – ERACL3",125," Ecully Cedex",25,1,0,1,0
"92ème","Les Pinalouests",119," Lorient",23,1,1,0,0
"93ème","C-Tronic",145," AUBIERE",22,1,0,1,0
"93ème","AREM",112," Gardanne",22,1,0,1,0
"95ème","ENSSAT Robotique",126," Lannion",21,1,0,1,0
"96ème","Roboticam Vendée",137," LA ROCHE SUR YON",20,1,0,0,1
"96ème","ESTIA SYSTEM",25," Bidart",20,2,0,0,1
"96ème","CRoC",2," Gif sur Yvette",20,2,0,0,1
"96ème","A.R.E.A.",91," Amiens",20,2,0,0,1
"96ème","Robotech Lille",41," Villeneuve d’Ascq",20,1,0,0,1
"96ème","Everbot",87," La Grande-Motte",20,1,0,1,0
"96ème","Projet&Tech’ : Legacy",65," Saint-Etienne",20,2,0,0,1
"96ème","Stardust3000",71," carquefou",20,1,1,0,0
"104ème","CRIS – SeaTech Toulon",233," La Garde",0,2,0,0,0
"104ème","Esisar",116," Valence",0,2,0,0,0
"104ème","Les Cools Girls",142," Toulouse",0,2,0,0,0
"104ème","Supmeca Never Dies",61," Sanary sur mer",0,1,0,0,0
"104ème","L’ENSMA-BOT",21," chasseneuil du poitou",0,1,0,0,0
"104ème","AIR ISEP",9," Paris",0,1,0,0,0
"104ème","UXSCBotmoiselle",102," Madrid",0,1,0,0,0
