"Équipes","Structures","Ville","Pays","Lien"
"Alpabot","Alpabot","Chirens","France",
"Beckhoff - CPNV","Beckhoff - CPNV","Yverdon-les-Bains","Switzerland"," https://www.beckhoff.ch // http://www.cpnv.ch"
"Bot Marley Team-UCLouvain","Université catholique de Louvain","Bruxelles","Belgium",
"BoTortank Team–UCLouvain","Université catholique de Louvain","Bruxelles","Belgium",
"C.R.A.P.","Association de Robotique CRAP","Grenoble","France",
"CRH","heig-VD","Yverdon-les-Bains","Switzerland","https://heig-vd.ch/campus/vie-sur-le-campus/associations/crh"
"CVRA","Club Vaudois de Robotique Autonome","Renens","Switzerland","http://www.cvra.ch/"
"EMBA","EMBA Sion","Sion","Switzerland",
"E-Robot","E-Robot","St-Imier","Switzerland","http://www.erobot.ch/site/"
"FP Bobst","Bobst","Mex","Switzerland",
"GodziBot Team-UCLouvain","Université catholique de Louvain","Bruxelles","Belgium",
"Happy Social Robot","HSR","Rapperswil","Switzerland","https://www.hsr.ch/de/"
"IRIS","Centre de formation professionnel et technique","Genève","Switzerland",
"RCO","Roboterclub Ostschweiz","Ostschweiz","Switzerland",
"RCR","Roboter Club Rapperswil","Rapperswil","Switzerland","http://www.rcrapperswil.ch/"
"RTFM","Hes-so Fribourg","Fribourg","Switzerland","http://www.rtfmswiss.ch/"
"TeamAuto","CPNV","Yverdon-les-Bains","Switzerland","http://teamauto.cpnv-automation.ch/"
"Team Botman – UCLouvain","Université catholique de Louvain","Bruxelles","Belgium",
"Team Robeenet–UCLouvain","Université catholique de Louvain","Bruxelles","Belgium",
"TURAG","TURAG"," Dresden","Germany","https://www.turag.de/"
"Sudriabotik","Sudriabotik","Corbineau","France",
