"Rang","Équipe","Origine","Points","Stand","Joués","Victoire","Défaite","Égalités","Forfaits"
"1er","Wheels Team","FRANCE",44,25,1,1,0,0,0
"2e","RCVA","FRANCE",41,193,1,1,0,0,0
"3e","Space Crackers","FRANCE",39,197,1,1,0,0,0
"4e","BH Team","FRANCE",35,17,1,1,0,0,0
"5e","R3EA","FRANCE",33,201,1,1,0,0,0
"6e","Supaero Robotik Club","FRANCE",32,195,1,1,0,0,0
"7e","Serinus","FRANCE",30,6,1,1,0,0,0
"8e","Cybernétique en Nord","FRANCE",29,145,1,1,0,0,0
"8e","OMYBOT","FRANCE",29,184,1,1,0,0,0
"10e","Comet","FRANCE",27,31,1,1,0,0,0
"10e","LinuxTeam","FRANCE",27,60,1,1,0,0,0
"10e","APBTeam","FRANCE",27,165,1,1,0,0,0
"10e","INTech","FRANCE",27,180,1,1,0,0,0
"14e","LES DTRAQUES","FRANCE",26,164,1,1,0,0,0
"14e","CRAC","FRANCE",26,170,1,1,0,0,0
"16e","Perrin’s Team","FRANCE",25,198,1,1,0,0,0
"16e","Reims2","FRANCE",25,202,1,0,1,0,0
"18e","Sophia Team","FRANCE",24,1,1,1,0,0,0
"18e","Bot en Eirb","FRANCE",24,43,1,1,0,0,0
"18e","Club de Robotique de l’INSA de Strasbourg","FRANCE",24,125,1,1,0,0,0
"18e","Krabi 2012","FRANCE",24,189,1,1,0,0,0
"22e","UTC","FRANCE",23,58,1,1,0,0,0
"22e","SwapadeG","FRANCE",23,76,1,1,0,0,0
"24e","Alpobot","FRANCE",22,22,1,1,0,0,0
"25e","Eirbot","FRANCE",21,39,1,1,0,0,0
"26e","Robotnik","FRANCE",20,135,1,1,0,0,0
"27e","MDR","FRANCE",18,4,1,1,0,0,0
"27e","ISEN-Supméca","FRANCE",18,49,1,0,0,1,0
"27e","ENSTA Bretagne","FRANCE",18,63,1,1,0,0,0
"27e","CUBOT","FRANCE",18,162,1,1,0,0,0
"27e","ARD","FRANCE",18,200,1,0,0,1,0
"27e","Télécom Robotics","FRANCE",18,204,1,1,0,0,0
"33e","Vincibot","FRANCE",17,3,1,1,0,0,0
"33e","Atlantronic","FRANCE",17,64,1,0,1,0,0
"35e","TTeam 73","FRANCE",16,137,1,0,1,0,0
"36e","CRAP","FRANCE",15,5,1,1,0,0,0
"36e","PM-ROBOTIX","FRANCE",15,42,1,1,0,0,0
"36e","Les Dromadaires","FRANCE",15,56,1,1,0,0,0
"36e","RIR","FRANCE",15,106,1,1,0,0,0
"36e","Walking Machine ETS Canada","FRANCE",15,117,1,1,0,0,0
"36e","Mines de Douai","FRANCE",15,154,1,0,1,0,0
"36e","ISTY2000","FRANCE",15,161,1,0,1,0,0
"36e","7Robot","FRANCE",15,187,1,1,0,0,0
"36e","CrazyBot","FRANCE",15,192,1,0,1,0,0
"45e","Poivron","FRANCE",14,27,1,1,0,0,0
"45e","oLeg","FRANCE",14,128,1,1,0,0,0
"47e","ENSSAT Robotique","FRANCE",13,9,1,0,0,1,0
"47e","3A’Eirb","FRANCE",13,44,1,1,0,0,0
"47e","Robotic System","FRANCE",13,68,1,0,0,1,0
"47e","les incesissables","FRANCE",13,71,1,1,0,0,0
"47e","Arialix 2","FRANCE",13,91,1,0,0,1,0
"47e","Club ECAM","FRANCE",13,99,1,1,0,0,0
"47e","ARIBOT","FRANCE",13,130,1,1,0,0,0
"47e","Robotech","FRANCE",13,147,1,1,0,0,0
"47e","Colors Team","FRANCE",13,171,1,0,0,1,0
"47e","Coffee-Machine","FRANCE",13,177,1,1,0,0,0
"57e","Valrobotik","FRANCE",12,70,1,0,1,0,0
"57e","INSA Toulouse","FRANCE",12,126,1,0,1,0,0
"57e","ClubElek","FRANCE",12,185,1,0,1,0,0
"60e","BrickStory","FRANCE",11,81,1,1,0,0,0
"61e","IFMARobotik","FRANCE",10,83,1,0,1,0,0
"62e","uART","FRANCE",9,124,1,0,1,0,0
"63e","RoboKit","FRANCE",8,113,1,0,0,1,0
"63e","razmoketronic","FRANCE",8,119,1,0,1,0,0
"63e","ENSIMELEC","FRANCE",8,127,1,0,1,0,0
"63e","AIRISEP","FRANCE",8,167,1,0,0,1,0
"63e","Ants","FRANCE",8,173,1,0,1,0,0
"68e","ESEO - Shark & Fish","FRANCE",7,105,1,0,1,0,0
"69e","U.R.P.5","FRANCE",6,97,1,0,1,0,0
"70e","Ingésup Robotics","FRANCE",5,7,1,0,1,0,0
"70e","EPF-Robotic","FRANCE",5,66,1,0,1,0,0
"70e","TY4","FRANCE",5,143,1,0,1,0,0
"70e","SUSSUS INVADERS","FRANCE",5,188,1,0,1,0,0
"74e","IFRELO-Team","FRANCE",3,65,1,0,1,0,0
"74e","Roboticam","FRANCE",3,73,1,0,1,0,0
"76e","S.M.A.R.T.","FRANCE",2,2,1,0,1,0,0
"76e","Beach Bot","FRANCE",2,16,1,0,1,0,0
"76e","Oufff Team","FRANCE",2,24,1,0,1,0,0
"76e","Rob’Otter","FRANCE",2,38,1,0,1,0,0
"76e","Addanc","FRANCE",2,40,1,0,1,0,0
"76e","Wall-y","FRANCE",2,41,1,0,1,0,0
"76e","Robotium","FRANCE",2,57,1,0,1,0,0
"76e","Robotik’ Cherbourg","FRANCE",2,72,1,0,1,0,0
"76e","E=EIG’6","FRANCE",2,77,1,0,1,0,0
"76e","CRLG","FRANCE",2,80,1,0,1,0,0
"76e",".Bot","FRANCE",2,82,1,1,0,0,0
"76e","Arialix","FRANCE",2,92,1,0,1,0,0
"76e","r2t2","FRANCE",2,93,1,0,1,0,0
"76e","TTT","FRANCE",2,111,1,0,1,0,0
"76e","Polygelec.1.2","FRANCE",2,112,1,0,1,0,0
"76e","The Metal-bugs","FRANCE",2,114,1,0,1,0,0
"76e","les calidos","FRANCE",2,118,1,0,1,0,0
"76e","ENAC Robotique","FRANCE",2,140,1,0,1,0,0
"76e","Goldorak et les pirates de l’espace","FRANCE",2,141,1,0,1,0,0
"76e","MAXITECH","FRANCE",2,144,1,0,1,0,0
"76e","EFREI Robotique","FRANCE",2,169,1,0,1,0,0
"76e","Arfit","FRANCE",2,176,1,1,0,0,0
"76e","TDS Team Junior","FRANCE",2,182,1,0,0,0,1
"76e","Ensisa M’BOT","FRANCE",2,185,1,0,1,0,0
"76e","Scarabi 2012","FRANCE",2,190,1,0,1,0,0
"76e","Eceborg","FRANCE",2,206,1,0,1,0,0
"102e","Esieespace","FRANCE",0,54,1,0,0,0,1
"102e","HackENS","FRANCE",0,59,1,0,0,0,1
"102e","Projet & Tech’","FRANCE",0,84,1,0,0,0,1
"102e","Robotek Orléans","FRANCE",0,88,1,0,0,0,1
"102e","Sumo-Supelec","FRANCE",0,142,1,0,0,0,1
"102e","Revolutionn’ AIR","FRANCE",0,168,1,0,0,0,1
"102e","lescoules","FRANCE",0,179,1,0,0,0,1
"102e","Chouette Robotik Club","FRANCE",0,196,1,0,0,0,1
"102e","Sudriabotik","FRANCE",0,205,1,0,0,0,1
